.................
----------------------------------------------------------------------
Ran 17 tests in 0.027s

OK
Name             Stmts   Miss Branch BrPart  Cover   Missing
------------------------------------------------------------
Collatz.py          46      0     20      0   100%
TestCollatz.py      71      0      0      0   100%
------------------------------------------------------------
TOTAL              117      0     20      0   100%
