............
----------------------------------------------------------------------
Ran 12 tests in 0.023s

OK
Name             Stmts   Miss Branch BrPart  Cover   Missing
------------------------------------------------------------
Collatz.py          35      0     14      0   100%
TestCollatz.py      55      0      0      0   100%
------------------------------------------------------------
TOTAL               90      0     14      0   100%
