......................
----------------------------------------------------------------------
Ran 22 tests in 0.031s

OK
Name             Stmts   Miss Branch BrPart  Cover   Missing
------------------------------------------------------------
Collatz.py          40      0     20      0   100%
TestCollatz.py      93      0      0      0   100%
------------------------------------------------------------
TOTAL              133      0     20      0   100%
