.................
----------------------------------------------------------------------
Ran 17 tests in 46.316s

OK
Name             Stmts   Miss Branch BrPart  Cover   Missing
------------------------------------------------------------
Collatz.py          35      0     16      0   100%
TestCollatz.py      72      0      0      0   100%
------------------------------------------------------------
TOTAL              107      0     16      0   100%
