50845 69867 340
82288 6825 351
79484 48678 351
11702 14196 276
81564 60006 351
89842 28068 351
92323 87308 333
45973 92589 351
52229 99461 351
66858 90132 351
60194 41740 340
85191 51320 351
86134 64796 351
89311 65178 351
10847 87732 351
12119 2725 268
33473 65763 340
28621 79397 351
18406 34299 311
29668 33654 285
73671 97437 351
53015 76148 335
36418 50677 314
15490 89978 351
76675 73989 325
81649 3618 351
34269 42144 324
2606 64318 340
21700 57305 340
48805 80542 351
89683 96234 333
5125 35919 324
62084 22526 340
79173 39381 351
15429 35985 324
70849 76633 325
91699 46817 351
19120 89638 351
17592 65613 340
68938 87761 351
27269 6746 308
80142 82891 320
71329 63850 325
4258 91706 351
19989 16735 279
15760 45371 324
22715 19639 274
43195 95303 351
96340 98582 297
36065 63109 340
37047 89998 351
53285 38834 340
46407 28151 324
82228 1090 351
23297 74626 340
93080 71703 351
81594 51608 351
6919 74850 340
59206 6196 340
32427 30808 285
7112 20934 279
59482 21747 340
21956 18831 274
68261 98424 351
1075 76068 340
77875 51872 351
53373 66519 335
16758 60119 340
93622 75477 351
74058 96752 351
13049 41005 324
12941 62253 340
21366 17212 279
37559 57741 340
37102 44324 306
90800 43149 351
63496 83731 351
49018 38928 314
96204 20558 351
1578 47886 324
28834 95767 351
36395 89435 351
47057 24210 324
28607 65795 340
4276 99498 351
75360 64792 325
99872 85250 333
60731 31032 340
4389 18126 279
5969 91270 351
3168 62774 340
10118 55667 340
42919 56547 340
74708 5506 340
41978 52628 340
51009 52792 340
71669 84543 351
58045 31748 340
41727 54105 340
9863 11666 268
13494 95658 351
37980 85169 351
62642 49007 340
83990 65546 351
40764 84131 351
41183 36283 306
79292 75373 351
9279 23127 279
57015 33301 340
16489 74796 340
25827 55171 340
88070 81267 333
65543 19353 340
59223 42268 340
14101 158 276
97784 55690 351
1841 67477 340
86450 52097 351
7566 4928 262
53704 91438 351
87332 50579 351
77275 4970 351
78847 73866 351
31672 28956 285
86310 79419 320
62717 96896 351
3395 40055 324
59679 99137 351
40960 13526 324
39937 32035 324
86268 23431 351
27180 442 308
1744 38197 324
30104 71425 340
43661 99483 351
70982 37342 340
95936 11036 351
95473 74704 351
31649 61741 340
21862 54684 340
95935 92952 328
48516 81483 351
70959 97780 351
14219 30772 308
96223 76068 351
88384 57305 351
76118 47354 340
19693 16432 279
21157 47471 324
33402 62549 340
863760 116321 525
192088 820863 509
827101 655235 504
730382 106920 509
233704 288722 407
289031 738955 509
505906 695010 509
295415 716841 509
408146 714197 509
1 999999 525
